module gitlab.com/legion-robotnik/LegionnaireGo

go 1.21

require (
	github.com/chigopher/pathlib v0.15.0
	github.com/spf13/cobra v1.7.0
	github.com/spf13/viper v1.17.0
)

require (
	bou.ke/monkey v1.0.2 // indirect
	github.com/davecgh/go-spew v1.1.2-0.20180830191138-d8f796af33cc // indirect
	github.com/fsnotify/fsnotify v1.6.0 // indirect
	github.com/hashicorp/hcl v1.0.0 // indirect
	github.com/inconshreveable/mousetrap v1.1.0 // indirect
	github.com/magiconair/properties v1.8.7 // indirect
	github.com/matryer/is v1.4.1 // indirect
	github.com/mitchellh/mapstructure v1.5.0 // indirect
	github.com/pelletier/go-toml/v2 v2.1.0 // indirect
	github.com/pmezard/go-difflib v1.0.1-0.20181226105442-5d4384ee4fb2 // indirect
	github.com/sagikazarmark/locafero v0.3.0 // indirect
	github.com/sagikazarmark/slog-shim v0.1.0 // indirect
	github.com/sourcegraph/conc v0.3.0 // indirect
	github.com/spf13/afero v1.10.0 // indirect
	github.com/spf13/cast v1.5.1 // indirect
	github.com/spf13/pflag v1.0.5 // indirect
	github.com/stretchr/testify v1.8.4 // indirect
	github.com/subosito/gotenv v1.6.0 // indirect
	go.uber.org/atomic v1.9.0 // indirect
	go.uber.org/multierr v1.9.0 // indirect
	golang.org/x/exp v0.0.0-20230905200255-921286631fa9 // indirect
	golang.org/x/sys v0.12.0 // indirect
	golang.org/x/text v0.13.0 // indirect
	gopkg.in/ini.v1 v1.67.0 // indirect
	gopkg.in/yaml.v3 v3.0.1 // indirect
)
